Datenanalyse
…
mobility_vaccine %>%
  distinct(Bundesland, Einwohner_2020) %>% 
  summarise(
    sum_einwohner = sum(Einwohner_2020))

##   sum_einwohner
## 1      83155031

mobility_vaccine %>%
    select(date, Anzahl, Impfstoff) %>% 
    group_by(Impfstoff)

## # A tibble: 27,888 x 3
## # Groups:   Impfstoff [4]
##    date       Anzahl Impfstoff
##    <chr>       <int> <chr>    
##  1 2020-12-27   2610 Comirnaty
##  2 2020-12-27      3 Moderna  
##  3 2020-12-27   3606 Comirnaty
##  4 2020-12-27   1770 Comirnaty
##  5 2020-12-27     28 Comirnaty
##  6 2020-12-27      3 Moderna  
##  7 2020-12-27    511 Comirnaty
##  8 2020-12-27    443 Comirnaty
##  9 2020-12-27      2 Comirnaty
## 10 2020-12-27   2712 Comirnaty
## # ... with 27,878 more rows
…
